36-315 Lab 02
…
(5 points) Which, if any, of these variables could be seen as categorical and continuous depending upon the situtation (Name one). Explain your choice.

One such variable could be fare. If there are only a few fixed fares, one per ticket class for example, then it would be categorical. However, if fares varied much more by person because of variations across time or discounts, then fares would be more continuous.

(Hint: If you print out the data_frame after using read_csv() to read it in, the data types of each variable are shown. This will also show the number of rows and columns.)

#  Put your code to answer the questions above here!
dim(titanic)

## [1] 712  12

titanic

## # A tibble: 712 x 12
##    PassengerId Survived Pclass Name  Sex     Age SibSp Parch Ticket  Fare
##          <int>    <int>  <int> <chr> <chr> <dbl> <int> <int> <chr>  <dbl>
##  1           1        0      3 Brau male     22     1     0 A/5 2  7.25
##  2           2        1      1 Cumi fema    38     1     0 PC 17 71.3 
##  3           3        1      3 Heik fema    26     0     0 STON/  7.92
##  4           4        1      1 Futr fema    35     1     0 113803 53.1 
##  5           5        0      3 Alle male     35     0     0 373450  8.05
##  6           7        0      1 McCa male     54     0     0 17463  51.9 
##  7           8        0      3 Pals male      2     3     1 349909 21.1 
##  8           9        1      3 John fema    27     0     2 347742 11.1 
##  9          10        1      2 Nass fema    14     1     0 237736 30.1 
## 10          11        1      3 Sand fema     4     1     1 PP 95 16.7 
## #  with 702 more rows, and 2 more variables: Cabin <chr>, Embarked <chr>
…
